Bayesian Updating · UncertaintyQuantification.jl
…
    proposal = Normal(0, 0.2)
    x0 = (;p=0.5)
    n_samples= 2000
    burnin = 500

    mh = SingleComponentMetropolisHastings(proposal, x0, n_samples, burnin)

SingleComponentMetropolisHastings(Normal{Float64}(μ=0.0, σ=0.2), (p = 0.5,), 2000, 500, true)
The final optional argument islog=true can be omitted when passing the log-likelihood and log-prior. When set to false, the algorithm will automatically compute the log for both functions. Finally, the algorithm is executed using the bayesianupdating function. This function returns the samples and the average acceptance rate.

mh_samples, α   = bayesianupdating(logprior, loglikelihood, mh)

(2000×1 DataFrame
  Row │ p
      │ Float64
──────┼──────────
    1 │ 0.826745
    2 │ 0.829098
    3 │ 0.826567
    4 │ 0.826567
    5 │ 0.817685
    6 │ 0.817685
    7 │ 0.817685
    8 │ 0.817685
  ⋮   │    ⋮
 1994 │ 0.805926
 1995 │ 0.805926
 1996 │ 0.805926
 1997 │ 0.805926
 1998 │ 0.805926
 1999 │ 0.805926
 2000 │ 0.805926
1985 rows omitted, 0.72)
…
